@startuml restaurant00

class Restaurant {
name
address
number of tables
employees
}

class Serving {
name
type
price
is available
}

class Dessert {
type
}

class Meal {
is spicy
}

class Drink {
is alcohol free
}

class Table {
number of chairs
window or inner
}

class Reservation {
date
time
number of customers
}

Restaurant "1" --> "0..*" Serving: has
Restaurant "1" --> "0..*" Reservation: has
Restaurant "1" --> "0..*" Table: has
Reservation "0..*" --> "1" Table

Dessert --|> Serving
Meal --|> Serving
Drink --|> Serving

@enduml
