id,date,time,number of customers,restaurant id
001,01-12-2023,21:00,02,001
002,05-12-2023,20:30,02,001
003,02-12-2023,21:00,04,001
004,03-12-2023,19:30,03,002
005,06-12-2023,19:00,02,002
006,07-12-2023,20:00,02,002
007,12-12-2023,20:00,03,002
008,25-12-2023,21:15,02,002
009,12-12-2023,20:45,02,003
010,16-12-2023,21:00,02,003
011,09-12-2023,20:00,05,003
012,29-12-2023,19:00,04,003
013,31-12-2023,19:30,02,003
014,11-12-2023,21:00,02,004
015,15-12-2023,20:00,02,004
016,24-12-2023,20:30,03,004
017,23-12-2023,21:00,02,005
018,13-12-2023,19:00,04,005
019,23-12-2023,18:30,03,005
020,14-12-2023,20:45,02,005
021,04-12-2023,18:45,02,006
022,01-12-2023,21:00,03,006
023,08-12-2023,21:15,03,006
024,17-12-2023,21:30,02,006
025,27-12-2023,20:30,02,006
026,30-12-2023,20:15,05,006
027,22-12-2023,20:45,01,007
028,21-12-2023,19:30,04,008
029,12-12-2023,18:45,02,008
030,13-12-2023,20:30,02,008
031,04-12-2023,21:00,02,008